%YAML 1.1
%TAG !u! tag:unity3d.com,2011:
--- !u!114 &11400000
MonoBehaviour:
  m_ObjectHideFlags: 0
  m_CorrespondingSourceObject: {fileID: 0}
  m_PrefabInstance: {fileID: 0}
  m_PrefabAsset: {fileID: 0}
  m_GameObject: {fileID: 0}
  m_Enabled: 1
  m_EditorHideFlags: 0
  m_Script: {fileID: 11500000, guid: aa5fe635c708faa07e8e0255fd05bb41, type: 3}
  m_Name: LocalizationScriptableObject
  m_EditorClassIdentifier:
  m_Language: 0
  languagePopupInfos:
  - Language: 繁體中文
    LanguageTitle: 語言
    BtnOK: 確定
    IsOpen: 1
    languageEnum: 1
    fontName: NotoSansMonoCJKtc-Bold
    loadFromRes: 0
  - Language: 简体中文
    LanguageTitle: 语言
    BtnOK: 确定
    IsOpen: 0
    languageEnum: 2
    fontName: NotoSansMonoCJKtc-Bold
    loadFromRes: 0
  - Language: 日本語
    LanguageTitle: 言語
    BtnOK: OK
    IsOpen: 1
    languageEnum: 3
    fontName: NotoSansJP-Bold
    loadFromRes: 0
  - Language: English
    LanguageTitle: Language
    BtnOK: OK
    IsOpen: 1
    languageEnum: 4
    fontName: Roboto-Bold
    loadFromRes: 0
  - Language: อักษรไทย
    LanguageTitle: ภาษา
    BtnOK: ตกลง
    IsOpen: 1
    languageEnum: 5
    fontName: Kanit-Medium
    loadFromRes: 1
