%YAML 1.1
%TAG !u! tag:unity3d.com,2011:
--- !u!21 &2100000
Material:
  serializedVersion: 6
  m_ObjectHideFlags: 0
  m_CorrespondingSourceObject: {fileID: 0}
  m_PrefabInstance: {fileID: 0}
  m_PrefabAsset: {fileID: 0}
  m_Name: GashaLight
  m_Shader: {fileID: 4800000, guid: 64d0687e014bd434da453319bb074532, type: 3}
  m_ShaderKeywords: _CLIPPEDTILES_ON
  m_LightmapFlags: 4
  m_EnableInstancingVariants: 0
  m_DoubleSidedGI: 0
  m_CustomRenderQueue: -1
  stringTagMap: {}
  disabledShaderPasses: []
  m_SavedProperties:
    serializedVersion: 3
    m_TexEnvs:
    - _MainTex:
        m_Texture: {fileID: 0}
        m_Scale: {x: 1, y: 1}
        m_Offset: {x: 0, y: 0}
    m_Floats:
    - _Aberration: 0.708
    - _BackfaceVisibility: 1
    - _BlendDst: 0
    - _BlendSrc: 1
    - _BumpScale: 1
    - _CellAmount: 0
    - _ClippedTiles: 1
    - _Cull: 2
    - _Cutoff: 0.5
    - _DetailNormalMapScale: 1
    - _DstBlend: 0
    - _DstBlendOutline: 10
    - _EffectAberration: 0.394
    - _EnableConstSizeOutline: 0
    - _EnableTexturedOutline: 0
    - _EnableZSmooth: 0
    - _FlashAmount: 0.742
    - _Flicker: 0.0636
    - _Glitch: 0.871
    - _GlitchResolution: 4.65
    - _GlitchSpeed: 0.63
    - _GlossMapScale: 1
    - _Glossiness: 0.5
    - _GlossyReflections: 1
    - _Intensity: 3.87
    - _InvFade: 0.01
    - _InvertPhase: 0
    - _Metallic: 0
    - _Mode: 0
    - _OcclusionStrength: 1
    - _Offset1: 0
    - _Offset2: 0
    - _Outline: 1
    - _Overbright: 0.28
    - _Parallax: 0.02
    - _Phase: 0.254
    - _PhaseSharpness: 0.852
    - _RampSmooth: 0.001
    - _RampThreshold: 0
    - _ReflectionAlpha: 0
    - _RoundClipping: 0
    - _ScaleAroundTile: 25
    - _ScanlineStrength: 1
    - _Scattering: 0.25
    - _ScreenTexWeight: 0.974
    - _Smoothness: 0.2
    - _SmoothnessTextureChannel: 0
    - _SpecSmooth: 0
    - _SpecularHighlights: 1
    - _SquareTiles: 0
    - _SrcBlend: 1
    - _SrcBlendOutline: 5
    - _SwitchSpeed: 12
    - _TexLod: 5
    - _TexWidth: 0
    - _UVSec: 0
    - _ZSmooth: -0.5
    - _ZTest: 0
    - _ZWrite: 1
    - __dummy__: 0
    - __outline_gui_dummy__: 0
    m_Colors:
    - _Color: {r: 1, g: 1, b: 1, a: 1}
    - _Color2: {r: 1, g: 0, b: 0, a: 1}
    - _EmisColor: {r: 1, g: 1, b: 1, a: 1}
    - _EmissionColor: {r: 0, g: 0, b: 0, a: 1}
    - _GlitchColor: {r: 1, g: 1, b: 1, a: 1}
    - _HColor: {r: 1, g: 1, b: 1, a: 1}
    - _IdleData: {r: 0.1, g: 0.1, b: 0, a: 0}
    - _OutlineColor: {r: 0, g: 0, b: 0, a: 1}
    - _PhaseDirection: {r: 0, g: 0, b: 0, a: 0}
    - _SColor: {r: 1, g: 1, b: 1, a: 1}
    - _Scaling: {r: 1, g: 1, b: 0.5, a: 0.5}
    - _ScanlineData: {r: 0.2, g: 0.5, b: 0, a: 0}
    - _SpecColor: {r: 0.5, g: 0.5, b: 0.5, a: 1}
    - _TileCount: {r: 25, g: 25, b: 25, a: 25}
    - _TintColor: {r: 0, g: 0, b: 0, a: 0}
