%YAML 1.1
%TAG !u! tag:unity3d.com,2011:
--- !u!213 &21300000
Sprite:
  m_ObjectHideFlags: 0
  m_CorrespondingSourceObject: {fileID: 0}
  m_PrefabInstance: {fileID: 0}
  m_PrefabAsset: {fileID: 0}
  m_Name: UI_Common_popup01_Title
  m_Rect:
    serializedVersion: 2
    x: 0
    y: 0
    width: 365
    height: 72
  m_Offset: {x: 0, y: 0}
  m_Border: {x: 359, y: 0, z: 0, w: 0}
  m_PixelsToUnits: 100
  m_Pivot: {x: 0.5, y: 0.5}
  m_Extrude: 1
  m_IsPolygon: 0
  m_AtlasName:
  m_PackingTag:
  m_RenderDataKey:
    00000000000000000000000000000000: 0
  m_AtlasTags: []
  m_SpriteAtlas: {fileID: 0}
  m_RD:
    serializedVersion: 3
    texture: {fileID: 2800000, guid: 08dc302abb2d20e45bfd3bd62a0e7622, type: 3}
    alphaTexture: {fileID: 0}
    m_SubMeshes:
    - serializedVersion: 2
      firstByte: 0
      indexCount: 6
      topology: 0
      baseVertex: 0
      firstVertex: 0
      vertexCount: 4
      localAABB:
        m_Center: {x: 0, y: 0, z: 0}
        m_Extent: {x: 0, y: 0, z: 0}
    m_IndexBuffer: 030000000100020001000000
    m_VertexData:
      serializedVersion: 2
      m_VertexCount: 4
      m_Channels:
      - stream: 0
        offset: 0
        format: 0
        dimension: 3
      - stream: 0
        offset: 0
        format: 0
        dimension: 0
      - stream: 0
        offset: 0
        format: 0
        dimension: 0
      - stream: 0
        offset: 0
        format: 0
        dimension: 0
      - stream: 1
        offset: 0
        format: 0
        dimension: 2
      - stream: 0
        offset: 0
        format: 0
        dimension: 0
      - stream: 0
        offset: 0
        format: 0
        dimension: 0
      - stream: 0
        offset: 0
        format: 0
        dimension: 0
      - stream: 0
        offset: 0
        format: 0
        dimension: 0
      - stream: 0
        offset: 0
        format: 0
        dimension: 0
      - stream: 0
        offset: 0
        format: 0
        dimension: 0
      - stream: 0
        offset: 0
        format: 0
        dimension: 0
      - stream: 0
        offset: 0
        format: 0
        dimension: 0
      - stream: 0
        offset: 0
        format: 0
        dimension: 0
      m_DataSize: 80
      _typelessdata: 9a99e9bfec51b83e000000009a99e93fec51b8be000000009a99e93fec51b83e000000009a99e9bfec51b8be000000000000000000000000000000000000000000000000000000000000000000000000
    m_Bindpose: []
    textureRect:
      serializedVersion: 2
      x: 0
      y: 0
      width: 365
      height: 72
    textureRectOffset: {x: 0, y: 0}
    atlasRectOffset: {x: 0, y: 0}
    settingsRaw: 67
    uvTransform: {x: 100, y: 182.5, z: 100, w: 36}
    downscaleMultiplier: 1
  m_AtlasRD:
    serializedVersion: 3
    texture: {fileID: 0}
    alphaTexture: {fileID: 0}
    m_SubMeshes: []
    m_IndexBuffer:
    m_VertexData:
      serializedVersion: 2
      m_VertexCount: 0
      m_Channels: []
      m_DataSize: 0
      _typelessdata:
    m_Bindpose: []
    textureRect:
      serializedVersion: 2
      x: 0
      y: 0
      width: 0
      height: 0
    textureRectOffset: {x: 0, y: 0}
    atlasRectOffset: {x: 0, y: 0}
    settingsRaw: 0
    uvTransform: {x: 0, y: 0, z: 0, w: 0}
    downscaleMultiplier: 0
  m_PhysicsShape: []
  m_Bones: []
  m_SpriteID:
