%YAML 1.1
%TAG !u! tag:unity3d.com,2011:
--- !u!78 &1
TagManager:
  serializedVersion: 2
  tags:
  - Enemy
  - FX
  layers:
  - Default
  - TransparentFX
  - Ignore Raycast
  - 
  - Water
  - UI
  - 
  - 
  - PostProcessing
  - Block
  - SemiBlock
  - NoWallKick
  - BlockPlayer
  - BlockEnemy
  - Player
  - PvpPlayer
  - 
  - AutoAimSystem
  - Vehicle
  - Enemy
  - RenderPlayer
  - RenderEnemy
  - RenderSPEnemy
  - RenderBlock
  - Bullet
  - UIBackground
  - OrangeGUI
  - RenderTexture
  - GuildScene
  - BulletIgnoreBlock
  - 
  - 
  m_SortingLayers:
  - name: Default
    uniqueID: 0
    locked: 0
